Get Teamstaffel Results Table — get_results • teamstaffel
…
base_url
default: "https://berlin-wasserbetriebe.r.mikatiming.de"

    Value

    tibble with results

    Examples

women <- get_results("W")
women
#> # A tibble: 180 × 6
#>    place team                    start_number age_class finish_time event_name  
#>    <int> <chr>                   <chr>        <chr>     <chr>       <chr>       
#>  1     1 SCC - LA Hille-Friends  F607         Normals   01:37:34    5 x 5 km TE…
#>  2     2 adidas Runners Berlin 1 F869         Normals   01:44:18    5 x 5 km TE…
#>  3     3 SCC - LA TG Braun I     F615         Normals   01:44:21    5 x 5 km TE…
#>  4     4 Polizei Berlin Frauen   M798         Normals   01:46:09    5 x 5 km TE…
#>  5     5 adidas Runners Berlin 2 F870         Normals   01:48:55    5 x 5 km TE…
#>  6     6 SCC Berlin - Hockey II  F631         Normals   01:49:39    5 x 5 km TE…
#>  7     7 SCC - LA Maulwürfe I    F608         Normals   01:50:00    5 x 5 km TE…
#>  8     8 KFH Humanmechaniker 2   F430         Normals   01:52:18    5 x 5 km TE…
#>  9     9 LC RON-HILL Berlin F1   M636         Normals   01:52:54    5 x 5 km TE…
#> 10    10 SCC - LA TG Braun II    F616         Normals   01:53:11    5 x 5 km TE…
#> # ℹ 170 more rows
…
